<svg width="20" height="20" viewBox="0 0 20 20" fill="none" xmlns="http://www.w3.org/2000/svg">
<path d="M10.0001 1.66666C5.39758 1.66666 1.66675 5.39749 1.66675 9.99999C1.66675 14.6025 5.39758 18.3333 10.0001 18.3333C14.6026 18.3333 18.3334 14.6025 18.3334 9.99999C18.3334 5.39749 14.6026 1.66666 10.0001 1.66666ZM3.33341 9.99999C3.33341 8.23188 4.03579 6.53619 5.28604 5.28594C6.53628 4.0357 8.23197 3.33332 10.0001 3.33332C11.5401 3.33332 12.9542 3.86082 14.0834 4.73832L4.73841 14.0833C3.82758 12.9171 3.33301 11.4797 3.33341 9.99999ZM10.0001 16.6667C8.52031 16.6672 7.0829 16.1726 5.91675 15.2617L15.2617 5.91666C16.1726 7.08287 16.6672 8.52024 16.6667 9.99999C16.6667 11.7681 15.9644 13.4638 14.7141 14.714C13.4639 15.9643 11.7682 16.6667 10.0001 16.6667Z" fill="#FD7021"/>
</svg>
