<svg width="30" height="30" viewBox="0 0 30 30" fill="none" xmlns="http://www.w3.org/2000/svg">
<path d="M7.96872 26.25H7.03122V27.1875H7.96872V26.25Z" fill="#0081B8"/>
<path d="M17.8125 20.625H9.84375V13.5938C9.84375 13.4694 9.79436 13.3502 9.70646 13.2623C9.61855 13.1744 9.49932 13.125 9.375 13.125H0.9375C0.81318 13.125 0.693951 13.1744 0.606044 13.2623C0.518136 13.3502 0.46875 13.4694 0.46875 13.5938V28.5938C0.46875 28.7181 0.518136 28.8373 0.606044 28.9252C0.693951 29.0131 0.81318 29.0625 0.9375 29.0625H17.8125C17.9368 29.0625 18.056 29.0131 18.144 28.9252C18.2319 28.8373 18.2812 28.7181 18.2812 28.5938V21.0938C18.2812 20.9694 18.2319 20.8502 18.144 20.7623C18.056 20.6744 17.9368 20.625 17.8125 20.625ZM12.6562 21.5625H14.5312V23.4375H12.6562V21.5625ZM4.21875 14.0625H6.09375V15.9375H4.21875V14.0625ZM1.40625 14.0625H3.28125V16.4063C3.28125 16.5306 3.33064 16.6498 3.41854 16.7377C3.50645 16.8256 3.62568 16.875 3.75 16.875H6.5625C6.68682 16.875 6.80605 16.8256 6.89396 16.7377C6.98186 16.6498 7.03125 16.5306 7.03125 16.4063V14.0625H8.90625V20.625H1.40625V14.0625ZM4.21875 21.5625H6.09375V23.4375H4.21875V21.5625ZM1.40625 21.5625H3.28125V23.9063C3.28125 24.0306 3.33064 24.1498 3.41854 24.2377C3.50645 24.3256 3.62568 24.375 3.75 24.375H6.5625C6.68682 24.375 6.80605 24.3256 6.89396 24.2377C6.98186 24.1498 7.03125 24.0306 7.03125 23.9063V21.5625H8.90625V28.125H1.40625V21.5625ZM17.3438 28.125H9.84375V21.5625H11.7188V23.9063C11.7188 24.0306 11.7681 24.1498 11.856 24.2377C11.944 24.3256 12.0632 24.375 12.1875 24.375H15C15.1243 24.375 15.2435 24.3256 15.3315 24.2377C15.4194 24.1498 15.4688 24.0306 15.4688 23.9063V21.5625H17.3438V28.125Z" fill="#0081B8" stroke="#0081B8" stroke-width="0.5"/>
<path d="M16.4062 26.25H15.4687V27.1875H16.4062V26.25Z" fill="#0081B8"/>
<path d="M7.96872 18.75H7.03122V19.6875H7.96872V18.75Z" fill="#0081B8"/>
<path d="M28.015 6.54939C28.051 6.55813 28.0879 6.56254 28.125 6.56252C28.2071 6.56246 28.2878 6.54087 28.359 6.49991C28.4302 6.45895 28.4894 6.40005 28.5308 6.32908C28.5734 6.25414 28.5951 6.16917 28.5937 6.08299V4.21877C28.5937 4.11358 28.5583 4.01146 28.4933 3.92881C28.4282 3.84617 28.3372 3.78782 28.235 3.76314L14.6412 0.48189C14.5689 0.46437 14.4935 0.46437 14.4212 0.48189L0.827493 3.76314C0.725243 3.78782 0.634266 3.84617 0.569193 3.92881C0.504119 4.01146 0.468732 4.11358 0.468723 4.21877V6.08047C0.467121 6.17862 0.495181 6.27497 0.549231 6.35691C0.602868 6.43579 0.679257 6.49646 0.768229 6.53084C0.857202 6.56523 0.954537 6.5717 1.04728 6.54939L1.87497 6.34965V12.1875H2.81247V6.12336L14.5312 3.29468L26.25 6.12336V28.125H23.4375V9.84377C23.4375 9.71945 23.3881 9.60022 23.3002 9.51231C23.2123 9.42441 23.093 9.37502 22.9687 9.37502H6.09372C5.9694 9.37502 5.85017 9.42441 5.76227 9.51231C5.67436 9.60022 5.62497 9.71945 5.62497 9.84377V11.7188C5.62497 11.8431 5.67436 11.9623 5.76227 12.0502C5.85017 12.1381 5.9694 12.1875 6.09372 12.1875H22.5V13.125H10.7812V14.0625H22.5V15H10.7812V15.9375H22.5V16.875H10.7812V17.8125H22.5V28.125H19.2187V29.0625H28.5937V28.125H27.1875V6.34965L28.015 6.54939ZM6.56247 11.25V10.3125H22.5V11.25H6.56247ZM14.5312 2.34377C14.4942 2.34375 14.4572 2.34815 14.4212 2.35689L1.40622 5.4984V4.58791L14.5312 1.41974L27.6562 4.58791V5.49846L14.6412 2.35689C14.6052 2.34815 14.5683 2.34375 14.5312 2.34377Z" fill="#0081B8" stroke="#0081B8" stroke-width="0.5"/>
<path d="M15.4688 7.96878C15.8417 7.96878 16.1994 7.82062 16.4631 7.5569C16.7268 7.29318 16.875 6.93549 16.875 6.56253C16.875 6.18957 16.7268 5.83188 16.4631 5.56816C16.1994 5.30444 15.8417 5.15628 15.4688 5.15628H13.5938C13.2208 5.15628 12.8631 5.30444 12.5994 5.56816C12.3357 5.83188 12.1875 6.18957 12.1875 6.56253C12.1875 6.93549 12.3357 7.29318 12.5994 7.5569C12.8631 7.82062 13.2208 7.96878 13.5938 7.96878H15.4688ZM13.125 6.56253C13.1251 6.43825 13.1746 6.31911 13.2624 6.23123C13.3503 6.14335 13.4695 6.09392 13.5938 6.09378H15.4688C15.5931 6.09378 15.7123 6.14317 15.8002 6.23107C15.8881 6.31898 15.9375 6.43821 15.9375 6.56253C15.9375 6.68685 15.8881 6.80608 15.8002 6.89399C15.7123 6.98189 15.5931 7.03128 15.4688 7.03128H13.5938C13.4695 7.03114 13.3503 6.98171 13.2624 6.89383C13.1746 6.80596 13.1251 6.68681 13.125 6.56253Z" fill="#0081B8"/>
</svg>
