<svg width="24" height="24" viewBox="0 0 24 24" fill="none" xmlns="http://www.w3.org/2000/svg">
<g clip-path="url(#clip0)">
<path d="M23.6 19.5611H23.2V11.9611C23.2 11.7402 23.0209 11.5611 22.8 11.5611H21.2C20.9791 11.5611 20.8 11.7402 20.8 11.9611V16.7717C20.275 16.368 19.5828 16.2535 18.9557 16.4668C18.3287 16.6803 17.8498 17.193 17.6801 17.8332C17.0943 15.4955 16.8 14.2088 16.8 11.5611V9.65C16.8 9.4291 16.6209 9.25 16.4 9.25H10.8C10.5791 9.25 10.4 9.4291 10.4 9.65V11.5611C10.4 14.3268 10.0801 15.6039 9.44004 18.1492L9.2 19.1119L9.07676 18.6188L8.95684 18.1492C8.31992 15.6039 8 14.3268 8 11.5611V9.65C8 9.4291 7.8209 9.25 7.6 9.25H2C1.7791 9.25 1.6 9.4291 1.6 9.65V11.5611C1.6 14.3268 1.28008 15.6039 0.640039 18.1492L0.4 19.1119C0.134375 20.1746 0 21.2658 0 22.3611C0 22.582 0.179102 22.7611 0.4 22.7611H23.6C23.8209 22.7611 24 22.582 24 22.3611V19.9611C24 19.7402 23.8209 19.5611 23.6 19.5611V19.5611ZM2.4 10.05H7.2V10.85H2.4V10.05ZM0.806445 21.9611C0.834766 21.0654 0.958789 20.1754 1.17598 19.3061L1.41602 18.3439C2.06445 15.7611 2.39238 14.4512 2.4 11.65H7.2C7.20684 14.45 7.53477 15.7629 8.18242 18.3439L8.42246 19.3061C8.64023 20.1754 8.76465 21.0654 8.79355 21.9611H0.806445ZM11.2 10.05H16V10.85H11.2V10.05ZM9.60645 21.9611C9.63477 21.0654 9.75879 20.1754 9.97598 19.3061L10.216 18.3439C10.8645 15.7611 11.1924 14.4512 11.2 11.65H16C16.0068 14.45 16.3348 15.7629 16.9824 18.3439L17.2225 19.3061C17.4402 20.1754 17.5646 21.0654 17.5936 21.9611H9.60645ZM19.6 17.1611C20.1084 17.1619 20.5615 17.482 20.7316 17.9611H18.4684C18.6385 17.482 19.0916 17.1619 19.6 17.1611ZM20.8 21.9611H18.4V20.3611H20.8V21.9611ZM20.8 19.5611H18.4V18.7611H20.8V19.5611ZM21.6 12.3611H22.4V13.1611H21.6V12.3611ZM21.6 13.9611H22.4V14.7611H21.6V13.9611ZM21.6 15.5611H22.4V16.3611H21.6V15.5611ZM21.6 17.1611H22.4V17.9611H21.6V17.1611ZM21.6 18.7611H22.4V19.5611H21.6V18.7611ZM23.2 21.9611H21.6V20.3611H23.2V21.9611Z" fill="#14637D" stroke="#14637D" stroke-width="0.5"/>
<path d="M12.4 8.45H14.6252C15.8258 8.44863 16.7986 7.47578 16.8 6.2752V5.25H17C18.6561 5.24805 19.998 3.90605 20 2.25V1.65C20 1.4291 19.8209 1.25 19.6 1.25H16.6C14.9439 1.25176 13.6018 2.59395 13.6 4.25V4.53008C12.6563 4.78926 12.0016 5.64648 12 6.62519V8.05039C12.0002 8.27109 12.1793 8.45 12.4 8.45ZM14.4 4.25C14.4014 3.03555 15.3855 2.05137 16.6 2.05H19.2V2.25C19.1986 3.46445 18.2145 4.44863 17 4.45H14.4V4.25ZM12.8 6.6248C12.801 5.86582 13.4158 5.25098 14.1748 5.25H16V6.2752C15.999 7.03418 15.3842 7.64902 14.6252 7.65H12.8V6.6248Z" fill="#14637D" stroke="#14637D" stroke-width="0.5"/>
<path d="M3.59995 8.45H5.82515C7.02573 8.44863 7.99858 7.47578 7.99995 6.2752V5.25H8.19995C9.85601 5.24805 11.198 3.90605 11.2 2.25V1.65C11.2 1.4291 11.0208 1.25 10.8 1.25H7.79995C6.1439 1.25176 4.80171 2.59395 4.79995 4.25V4.53008C3.8562 4.78926 3.20151 5.64648 3.19995 6.62519V8.05039C3.20015 8.27109 3.37925 8.45 3.59995 8.45ZM5.59995 4.25C5.60132 3.03555 6.5855 2.05137 7.79995 2.05H10.4V2.25C10.3986 3.46445 9.4144 4.44863 8.19995 4.45H5.59995V4.25ZM3.99995 6.6248C4.00093 5.86582 4.61577 5.25098 5.37476 5.25H7.19995V6.2752C7.19897 7.03418 6.58413 7.64902 5.82515 7.65H3.99995V6.6248Z" fill="#14637D" stroke="#14637D" stroke-width="0.5"/>
</g>
<defs>
<clipPath id="clip0">
<rect width="24" height="24" fill="white"/>
</clipPath>
</defs>
</svg>
