
<svg width="24" height="24" viewBox="0 0 24 24" fill="none" xmlns="http://www.w3.org/2000/svg">
<g clip-path="url(#clip0)">
<path d="M11.7214 19.2295H11.1312V19.8197H11.7214V19.2295Z" fill="#14637D"/>
<path d="M17.9181 15.6885H12.9017V11.2623C12.9017 11.184 12.8706 11.109 12.8153 11.0536C12.7599 10.9983 12.6849 10.9672 12.6066 10.9672H7.29514C7.21688 10.9672 7.14183 10.9983 7.08649 11.0536C7.03115 11.109 7.00006 11.184 7.00006 11.2623V20.7049C7.00006 20.7832 7.03115 20.8582 7.08649 20.9136C7.14183 20.9689 7.21688 21 7.29514 21H17.9181C17.9963 21 18.0714 20.9689 18.1267 20.9136C18.1821 20.8582 18.2132 20.7832 18.2132 20.7049V15.9836C18.2132 15.9053 18.1821 15.8303 18.1267 15.7749C18.0714 15.7196 17.9963 15.6885 17.9181 15.6885ZM14.6722 16.2787H15.8525V17.459H14.6722V16.2787ZM9.36071 11.5574H10.541V12.7377H9.36071V11.5574ZM7.59022 11.5574H8.77055V13.0328C8.77055 13.111 8.80164 13.1861 8.85698 13.2414C8.91232 13.2968 8.98737 13.3279 9.06563 13.3279H10.8361C10.9144 13.3279 10.9894 13.2968 11.0448 13.2414C11.1001 13.1861 11.1312 13.111 11.1312 13.0328V11.5574H12.3115V15.6885H7.59022V11.5574ZM9.36071 16.2787H10.541V17.459H9.36071V16.2787ZM7.59022 16.2787H8.77055V17.7541C8.77055 17.8323 8.80164 17.9074 8.85698 17.9627C8.91232 18.0181 8.98737 18.0492 9.06563 18.0492H10.8361C10.9144 18.0492 10.9894 18.0181 11.0448 17.9627C11.1001 17.9074 11.1312 17.8323 11.1312 17.7541V16.2787H12.3115V20.4098H7.59022V16.2787ZM17.623 20.4098H12.9017V16.2787H14.082V17.7541C14.082 17.8323 14.1131 17.9074 14.1684 17.9627C14.2238 18.0181 14.2988 18.0492 14.3771 18.0492H16.1476C16.2259 18.0492 16.3009 18.0181 16.3562 17.9627C16.4116 17.9074 16.4427 17.8323 16.4427 17.7541V16.2787H17.623V20.4098Z" fill="#14637D" stroke="#14637D" stroke-width="0.3"/>
<path d="M17.0328 19.2295H16.4427V19.8197H17.0328V19.2295Z" fill="#14637D"/>
<path d="M11.7214 14.5082H11.1312V15.0984H11.7214V14.5082Z" fill="#14637D"/>
<path d="M24.3406 6.82781C24.3633 6.83331 24.3865 6.83609 24.4099 6.83607C24.4616 6.83603 24.5124 6.82245 24.5572 6.79666C24.602 6.77088 24.6393 6.7338 24.6653 6.68912C24.6921 6.64195 24.7058 6.58845 24.7049 6.5342V5.36066C24.7049 5.29445 24.6827 5.23016 24.6417 5.17814C24.6007 5.12611 24.5435 5.08938 24.4791 5.07384L15.9217 3.00827C15.8762 2.99724 15.8288 2.99724 15.7833 3.00827L7.22589 5.07384C7.16152 5.08938 7.10425 5.12611 7.06329 5.17814C7.02232 5.23016 7.00005 5.29445 7.00004 5.36066V6.53262C6.99903 6.59441 7.0167 6.65506 7.05072 6.70664C7.08449 6.7563 7.13257 6.79449 7.18858 6.81613C7.24459 6.83778 7.30586 6.84185 7.36425 6.82781L7.88529 6.70207V10.3771H8.47545V6.55962L15.8525 4.77895L23.2295 6.55962V20.4098H21.459V8.90165C21.459 8.82338 21.428 8.74833 21.3726 8.69299C21.3173 8.63765 21.2422 8.60656 21.164 8.60656H10.541C10.4628 8.60656 10.3877 8.63765 10.3324 8.69299C10.277 8.74833 10.2459 8.82338 10.2459 8.90165V10.082C10.2459 10.1602 10.277 10.2353 10.3324 10.2906C10.3877 10.346 10.4628 10.3771 10.541 10.3771H20.8689V10.9672H13.4918V11.5574H20.8689V12.1475H13.4918V12.7377H20.8689V13.3279H13.4918V13.918H20.8689V20.4098H18.8033V21H24.7049V20.4098H23.8197V6.70207L24.3406 6.82781ZM10.8361 9.78689V9.19673H20.8689V9.78689H10.8361ZM15.8525 4.18034C15.8292 4.18033 15.8059 4.1831 15.7833 4.1886L7.5902 6.1662V5.59304L15.8525 3.59866L24.1148 5.59304V6.16624L15.9217 4.1886C15.8991 4.1831 15.8758 4.18033 15.8525 4.18034Z" fill="#14637D" stroke="#14637D" stroke-width="0.3"/>
<path d="M16.4426 7.72132C16.6774 7.72132 16.9026 7.62805 17.0686 7.46204C17.2346 7.29602 17.3279 7.07086 17.3279 6.83607C17.3279 6.60129 17.2346 6.37613 17.0686 6.21011C16.9026 6.0441 16.6774 5.95083 16.4426 5.95083H15.2623C15.0275 5.95083 14.8024 6.0441 14.6364 6.21011C14.4703 6.37613 14.3771 6.60129 14.3771 6.83607C14.3771 7.07086 14.4703 7.29602 14.6364 7.46204C14.8024 7.62805 15.0275 7.72132 15.2623 7.72132H16.4426ZM14.9672 6.83607C14.9673 6.75784 14.9984 6.68284 15.0538 6.62752C15.1091 6.5722 15.1841 6.54108 15.2623 6.54099H16.4426C16.5209 6.54099 16.596 6.57208 16.6513 6.62742C16.7066 6.68276 16.7377 6.75781 16.7377 6.83607C16.7377 6.91433 16.7066 6.98939 16.6513 7.04473C16.596 7.10007 16.5209 7.13116 16.4426 7.13116H15.2623C15.1841 7.13107 15.1091 7.09995 15.0538 7.04463C14.9984 6.98931 14.9673 6.91431 14.9672 6.83607Z" fill="#14637D"/>
<path fill-rule="evenodd" clip-rule="evenodd" d="M2.6095 9.4845C2.64433 9.44958 2.68572 9.42187 2.73127 9.40296C2.77683 9.38406 2.82567 9.37433 2.875 9.37433C2.92432 9.37433 2.97316 9.38406 3.01872 9.40296C3.06428 9.42187 3.10566 9.44958 3.1405 9.4845L5.3905 11.7345C5.42542 11.7693 5.45313 11.8107 5.47203 11.8563C5.49094 11.9018 5.50067 11.9507 5.50067 12C5.50067 12.0493 5.49094 12.0982 5.47203 12.1437C5.45313 12.1893 5.42542 12.2307 5.3905 12.2655L3.1405 14.5155C3.07008 14.5859 2.97458 14.6255 2.875 14.6255C2.77542 14.6255 2.67991 14.5859 2.6095 14.5155C2.53908 14.4451 2.49953 14.3496 2.49953 14.25C2.49953 14.1504 2.53908 14.0549 2.6095 13.9845L4.59475 12L2.6095 10.0155C2.57458 9.98066 2.54687 9.93928 2.52796 9.89372C2.50906 9.84817 2.49933 9.79932 2.49933 9.75C2.49933 9.70067 2.50906 9.65183 2.52796 9.60627C2.54687 9.56071 2.57458 9.51933 2.6095 9.4845Z" fill="#14637D" stroke="#14637D" stroke-width="0.5"/>
<path fill-rule="evenodd" clip-rule="evenodd" d="M-3.5 12C-3.5 11.9005 -3.46049 11.8052 -3.39016 11.7348C-3.31984 11.6645 -3.22446 11.625 -3.125 11.625H4.75C4.84946 11.625 4.94484 11.6645 5.01517 11.7348C5.08549 11.8052 5.125 11.9005 5.125 12C5.125 12.0995 5.08549 12.1948 5.01517 12.2652C4.94484 12.3355 4.84946 12.375 4.75 12.375H-3.125C-3.22446 12.375 -3.31984 12.3355 -3.39016 12.2652C-3.46049 12.1948 -3.5 12.0995 -3.5 12Z" fill="#14637D" stroke="#14637D" stroke-width="0.5"/>
</g>
<defs>
<clipPath id="clip0">
<rect width="24" height="24" fill="white"/>
</clipPath>
</defs>
</svg>
